parser/counter.vcd
$date
	Mon May 16 16:46:35 2022
$end
$version
	Icarus Verilog
$end
$timescale
	10ps
$end
$scope module counter_tb $end
$var event 1 ! terminate_sim $end
$var event 1 " reset_enable $end
$var event 1 # reset_done $end
$var wire 4 $ count [3:0] $end
$var reg 1 % clk $end
$var reg 4 & count_compare [3:0] $end
$var reg 1 ' dut_error $end
$var reg 1 ( enable $end
$var reg 1 ) reset $end
$scope module U0 $end
$var wire 1 * clk $end
$var wire 1 + enable $end
$var wire 1 , reset $end
$var reg 4 - count [3:0] $end
$upscope $end
$scope module U1 $end
$var wire 1 . clk $end
$var wire 1 + enable $end
$var wire 1 , reset $end
$var reg 4 / count [3:0] $end
$upscope $end
$scope module U2 $end
$var wire 1 * clk $end
$var wire 1 + enable $end
$var wire 1 , reset $end
$var reg 4 0 count [3:0] $end
$upscope $end
$scope module U3 $end
$var wire 1 1 clk $end
$var wire 1 + enable $end
$var wire 1 , reset $end
$var reg 4 2 count [3:0] $end
$upscope $end
$upscope $end
$enddefinitions $end
#0
$dumpvars
bx 2
11
bx 0
bx /
1.
bx -
0,
0+
0*
0)
0(
0'
bx &
0%
bx $
1#
1"
1!
$end
#500
1%
0.
01
1*
#1000
0%
1.
11
0*
1"
#1500
1%
0.
01
1*
#2000
b0 /
b0 2
1)
1,
0%
1.
11
0*
#2500
b0 -
b0 $
b0 0
b0 &
1%
0.
01
1*
#3000
1#
0)
0,
0%
1.
11
0*
#3500
1%
0.
01
1*
#4000
b1 /
b1 2
b0x $
1(
1+
0%
1.
11
0*
#4500
b1 -
b1 $
b1 0
b1 &
1%
0.
01
1*
#5000
b10 /
b10 2
b0xx $
0%
1.
11
0*
#5500
b10 &
b10 0
b10 $
b10 -
1%
0.
01
1*
#6000
b11 /
b11 2
b1x $
0%
1.
11
0*
#6500
b11 -
b11 $
b11 0
b11 &
1%
0.
01
1*
#7000
b100 /
b100 2
b0xxx $
0%
1.
11
0*
#7500
b100 &
b100 0
b100 $
b100 -
1%
0.
01
1*
#8000
b101 /
b101 2
b10x $
0%
1.
11
0*
#8500
b101 -
b101 $
b101 0
b101 &
1%
0.
01
1*
#9000
b110 /
b110 2
b1xx $
0%
1.
11
0*
#9500
b110 &
b110 0
b110 $
b110 -
1%
0.
01
1*
#10000
b111 /
b111 2
b11x $
0%
1.
11
0*
#10500
b111 -
b111 $
b111 0
b111 &
1%
0.
01
1*
#11000
b1000 /
b1000 2
bx $
0%
1.
11
0*
#11500
b1000 &
b1000 0
b1000 $
b1000 -
1%
0.
01
1*
#12000
b1001 /
b1001 2
b100x $
0%
1.
11
0*
#12500
b1001 -
b1001 $
b1001 0
b1001 &
1%
0.
01
1*
#13000
b1010 /
b1010 2
b10xx $
0%
1.
11
0*
#13500
b1010 &
b1010 0
b1010 $
b1010 -
1%
0.
01
1*
#14000
b1011 /
b1011 2
b101x $
0%
1.
11
0*
#14500
b1011 -
b1011 $
b1011 0
b1011 &
1%
0.
01
1*
#15000
b1100 /
b1100 2
b1xxx $
0%
1.
11
0*
#15500
b1100 &
b1100 0
b1100 $
b1100 -
1%
0.
01
1*
#16000
b1101 /
b1101 2
b110x $
0%
1.
11
0*
#16500
b1101 -
b1101 $
b1101 0
b1101 &
1%
0.
01
1*
#17000
b1110 /
b1110 2
b11xx $
0%
1.
11
0*
#17500
b1110 &
b1110 0
b1110 $
b1110 -
1%
0.
01
1*
#18000
b1111 /
b1111 2
b111x $
0%
1.
11
0*
#18500
b1111 -
b1111 $
b1111 0
b1111 &
1%
0.
01
1*
#19000
b0 /
b0 2
bx $
0%
1.
11
0*
#19500
b0 &
b0 0
b0 $
b0 -
1%
0.
01
1*
#20000
b1 /
b1 2
b0x $
0%
1.
11
0*
#20500
b1 -
b1 $
b1 0
b1 &
1%
0.
01
1*
#21000
b10 /
b10 2
b0xx $
0%
1.
11
0*
#21500
b10 &
b10 0
b10 $
b10 -
1%
0.
01
1*
#22000
b11 /
b11 2
b1x $
0%
1.
11
0*
#22500
b11 -
b11 $
b11 0
b11 &
1%
0.
01
1*
#23000
b100 /
b100 2
b0xxx $
0%
1.
11
0*
#23500
b100 &
b100 0
b100 $
b100 -
1%
0.
01
1*
#24000
b101 /
b101 2
b10x $
0%
1.
11
0*
#24500
b101 -
b101 $
b101 0
b101 &
1%
0.
01
1*
#25000
b110 /
b110 2
b1xx $
0%
1.
11
0*
#25500
b110 &
b110 0
b110 $
b110 -
1%
0.
01
1*
#26000
b111 /
b111 2
b11x $
0%
1.
11
0*
#26500
b111 -
b111 $
b111 0
b111 &
1%
0.
01
1*
#27000
b1000 /
b1000 2
bx $
0%
1.
11
0*
#27500
b1000 &
b1000 0
b1000 $
b1000 -
1%
0.
01
1*
#28000
b1001 /
b1001 2
b100x $
0%
1.
11
0*
#28500
b1001 -
b1001 $
b1001 0
b1001 &
1%
0.
01
1*
#29000
0(
0+
0%
1.
11
0*
#29500
1!
1%
0.
01
1*
